{
  "header_left_text": "Year 1",
  "header_right_text": "The Agency Newsletter",
  "header_img": "data/images/jumbotron-widescreen.png",
  "header_img_sm": "data/images/jumbotron-mobile.png",
  "monthly_update_header": "NEWS",
  "debriefing_header": "DEBRIEFING ZONE",
  "debriefing_alert_text": "Do not read until completing the adventure!",
  "news_header": "IN SHORT",
  "footer_text": "FIND ALL THE NEWS FROM TIME STORIES AND SPACE COWBOYS ON",
  "footer_timestories_url": "http://www.spacecowboys.fr",
  "footer_facebook_url": "https://www.facebook.com/SpaceCowboysUS/",
  "footer_twitter_url": "https://twitter.com/SpaceCowboys1",
  "footer_language": "Language",
  "back_button_text": "Go Back",
  "transmission_log": "transmission log",
  "access_archive": "access archive",
  "access_granted": "ACCESS GRANTED",
  "months": [
    {
      "name": "January",
      "abbreviation": "Jan"
    },
    {
      "name": "February",
      "abbreviation": "Feb"
    },
    {
      "name": "March",
      "abbreviation": "Mar"
    },
    {
      "name": "April",
      "abbreviation": "Apr"
    },
    {
      "name": "May",
      "abbreviation": "May"
    },
    {
      "name": "June",
      "abbreviation": "June"
    },
    {
      "name": "July",
      "abbreviation": "July"
    },
    {
      "name": "August",
      "abbreviation": "Aug"
    },
    {
      "name": "September",
      "abbreviation": "Sept"
    },
    {
      "name": "October",
      "abbreviation": "Oct"
    },
    {
      "name": "November",
      "abbreviation": "Nov"
    },
    {
      "name": "December",
      "abbreviation": "Dec"
    }
  ]
}
